SPM8x8/SPM8x8.sim/sim_1/behav/xsim/simulate.log
Vivado Simulator 2018.2
Time resolution is 1 ps
Time=0 | rst=0 load=0 en=0 parallel_in=11100101 out=x
Time=5000 | rst=0 load=0 en=0 parallel_in=11100101 out=0
Time=10000 | rst=1 load=0 en=0 parallel_in=11100101 out=0
Time=20000 | rst=1 load=1 en=0 parallel_in=11100101 out=0
Time=25000 | rst=1 load=1 en=0 parallel_in=11100101 out=1
Time=30000 | rst=1 load=0 en=1 parallel_in=11100101 out=1
Time=35000 | rst=1 load=0 en=1 parallel_in=11100101 out=0
Time=45000 | rst=1 load=0 en=1 parallel_in=11100101 out=1
Time=55000 | rst=1 load=0 en=1 parallel_in=11100101 out=0
Time=75000 | rst=1 load=0 en=1 parallel_in=11100101 out=1
Time=105000 | rst=1 load=0 en=1 parallel_in=11100101 out=0
Time=110000 | rst=1 load=0 en=0 parallel_in=11100101 out=0
$finish called at time : 130 ns : File "D:/AUC/Spring 2025/Digital Design I/Project 2/8-8SPM/SPM8x8/SPM8x8.srcs/sim_1/new/PISO_TB.v" Line 32
01101
Time=215000 rst_n=1 en=0 serial_in=1 out=11001101
$finish called at time : 255 ns : File "D:/AUC/Spring 2025/Digital Design I/Project 2/8-8SPM/SPM8x8/SPM8x8.srcs/sim_1/new/ShiftRegister_TB.v" Line 45
rst=1 en=1 serial_in=0 out=0101111000100000
Time=120000 | rst=1 en=1 serial_in=1 out=0101111000100000
Time=125000 | rst=1 en=1 serial_in=1 out=1010111100010000
Time=130000 | rst=1 en=1 serial_in=0 out=1010111100010000
Time=135000 | rst=1 en=1 serial_in=0 out=0101011110001000
Time=145000 | rst=1 en=1 serial_in=0 out=0010101111000100
Time=150000 | rst=1 en=1 serial_in=1 out=0010101111000100
Time=155000 | rst=1 en=1 serial_in=1 out=1001010111100010
Time=165000 | rst=1 en=1 serial_in=1 out=1100101011110001
Time=170000 | rst=1 en=0 serial_in=1 out=1100101011110001
$finish called at time : 190 ns : File "D:/AUC/Spring 2025/Digital Design I/Project 2/8-8SPM/SPM8x8/SPM8x8.srcs/sim_1/new/SIPO_TB.v" Line 34
